#Election					
Title	Primarias Barcelona En Comú - Conseller/a de districte				
Id	103090				
Layout					
Description	Atenció: aquesta només és una de les TRES votacions obertes. Per favor, no t'oblidis de votar en les altres dos.				
Start date time	07/03/2015 12:00				
Duration in hours	132				
Share Text					
Theme	default				
					
					
					
					
#Question					
Title	 Quines de les següents persones vols que siguin consellera del teu districte?				
Description	Sant Andreu				
Voting system	plurality-at-large				
Layout	circles				
Number of winners	1				
Minimum choices	0				
Maximum choices	1				
Randomize options order	TRUE				
Totals	over-total-valid-votes				
					
@Options					
Text	Id	Category	Description	URL	Image URL
Sílvia Augé Tarrés	0	Sant Andreu		https://barcelonaencomu.cat/ca/candidatura-persona/silvia-auge-tarres	https://barcelonaencomu.cat/sites/default/files/styles/candidacy_person/public/candidacy/head/photo/silvia-auge.jpg?itok=z3UvzdkD
Felipe López-Aranguren 	1	Sant Andreu		https://barcelonaencomu.cat/ca/candidatura-persona/felipe-lopez-aranguren-quinones	https://barcelonaencomu.cat/sites/default/files/styles/candidacy_person/public/candidacy/head/photo/img015.jpg?itok=tMmfeJsk
					
