#Election					
Title	Primarias Barcelona En Comú - Conseller/a de districte				
Id	103030				
Layout					
Description	Atenció: aquesta només és una de les TRES votacions obertes. Per favor, no t'oblidis de votar en les altres dos.				
Start date time	07/03/2015 12:00				
Duration in hours	132				
Share Text					
Theme	default				
					
					
					
					
#Question					
Title	 Quines de les següents persones vols que siguin consellera del teu districte?				
Description	Sants-Montjuïc				
Voting system	plurality-at-large				
Layout	circles				
Number of winners	1				
Minimum choices	0				
Maximum choices	1				
Randomize options order	TRUE				
Totals	over-total-valid-votes				
					
@Options					
Text	Id	Category	Description	URL	Image URL
Jordi Pla Casaoliva	0	Sants-Montjuïc		https://barcelonaencomu.cat/ca/candidatura-persona/jordi-pla-casaoliva	https://barcelonaencomu.cat/sites/default/files/styles/candidacy_person/public/candidacy/head/photo/38081988z.png?itok=jjsTFkyi
Cristòfol Ortolà Ortolà	1	Sants-Montjuïc		https://barcelonaencomu.cat/ca/candidatura-persona/cristofol-ortola-ortola	https://barcelonaencomu.cat/sites/default/files/styles/candidacy_person/public/candidacy/head/photo/cristofol_ortola_ortola_sants_montjuic.jpg?itok=ulb6dLlo
Esther Pérez Sorribas	2	Sants-Montjuïc		https://barcelonaencomu.cat/ca/candidatura-persona/esther-perez-sorribas	https://barcelonaencomu.cat/sites/default/files/styles/candidacy_person/public/candidacy/head/photo/guanyem.jpg?itok=O3X-8Z_q
Carolina López García	3	Sants-Montjuïc		https://barcelonaencomu.cat/ca/candidatura-persona/carolina-lopez-garcia	https://barcelonaencomu.cat/sites/default/files/styles/candidacy_person/public/candidacy/head/photo/foto-primarias.jpg?itok=2M0b98w9
Josefa Moreno Hernández	4	Sants-Montjuïc		https://barcelonaencomu.cat/ca/candidatura-persona/josefa-moreno-hernandez	https://barcelonaencomu.cat/sites/default/files/styles/candidacy_person/public/candidacy/head/photo/fina.jpg?itok=OGHxsVF4
