#Election,,,,,,
Title,Votació de consellers i conselleres per Eixample,,,,,
Id,105021,,,,,
Layout,,,,,,
Description,Tria els teus consellers i conselleres de districte de l'Eixample,,,,,
Start date time,16/02/2015 10:00,,,,,
Duration in hours,70,,,,,
Share Text,,,,,,
Theme,bcnencomu,,,,,
,,,,,,
,,,,,,
#Question,,,,,,
Title,Tria els teus consellers i conselleres de districte de l'Eixample,,,,,
Description,"<a href=""https://barcelonaencomu.cat/ca/com-funciona-leleccio-de-conselleres-i-consellers"" target=""_blank"">Consulta a la pàgina de primàries de Barcelona en Comú les preguntes freqüents per aquesta votació",,,,,
Voting system,plurality-at-large,,,,,
Layout,accordion,,,,,
Number of winners,5,,,,,
Minimum choices,5,,,,,
Maximum choices,5,,,,,
Randomize options order,FALSE,,,,,
Totals,over-total-valid-votes,,,,,
extra: accordion_folding_policy,unfold-all,,,,,
extra: restrict_choices_by_tag__name,suplent,,,,,
extra: restrict_choices_by_tag__max,2,,,,,
extra: restrict_choices_by_tag__max_error_msg,No pots seleccionar més de de 2 suplents,,,,,
extra: force_allow_blank_vote,TRUE,,,,,
extra: restrict_choices_by_no_tag__max,3,,,,,
,,,,,,
@Options,,,,,,
Text,Id,Category,Gender,Image URL,URL,Tag
Eulàlia Corbella Cervelló,0,EQUIP: L'Eixample dels Barris en Comú,M,https://barcelonaencomu.cat/sites/default/files/styles/candidacy_person/public/candidacy/head/photo/eulalia.png?itok=hSECBIbl,https://barcelonaencomu.cat/ca/candidatura-persona/eulalia-corbella-cervello,
Ma Carme Méndez Bota,1,EQUIP: L'Eixample dels Barris en Comú,M,https://barcelonaencomu.cat/sites/default/files/styles/candidacy_person/public/candidacy/head/photo/carmeneixample.png?itok=_vLgf3At,https://barcelonaencomu.cat/ca/candidatura-persona/ma-carme-mendez-bota,
Jordi Matas Vilà,2,EQUIP: L'Eixample dels Barris en Comú,H,https://barcelonaencomu.cat/sites/default/files/styles/candidacy_person/public/candidacy/head/photo/jordimatas.png?itok=a_nPqan7,https://barcelonaencomu.cat/ca/candidatura-persona/jordi-matas-vila,
Alexandra Camps López,3,EQUIP: L'Eixample dels Barris en Comú,M,https://barcelonaencomu.cat/sites/default/files/styles/candidacy_person/public/candidacy/head/photo/alexandra.png?itok=ddMCSqH2,https://barcelonaencomu.cat/ca/candidatura-persona/suplent-alexandra-camps-lopez,suplent
Javier Dabbah Velazquez,4,EQUIP: L'Eixample dels Barris en Comú,H,https://barcelonaencomu.cat/sites/default/files/styles/candidacy_person/public/candidacy/head/photo/javier_dabbah.png?itok=ZAV_t1jR,https://barcelonaencomu.cat/ca/candidatura-persona/suplent-javier-dabbah-velazquez,suplent
Pablo Fernandez Magrazo,5,Candidatura Individual - Pablo Fernández Magrazo,H,https://barcelonaencomu.cat/sites/default/files/styles/candidacy_person/public/candidacy/head/photo/pablo_eixample.png?itok=ZZj9L3LC,https://barcelonaencomu.cat/ca/candidatura-persona/pablo-fernandez-magrazo,
Isabel Giralt,6,EQUIP: Isabel Giralt i Javier Gonzálbez,M,https://barcelonaencomu.cat/sites/default/files/styles/candidacy_person/public/candidacy/head/photo/isabel_giralt.png?itok=1pg_EvXS,https://barcelonaencomu.cat/ca/candidatura-persona/isabel-giralt,
Javier Gonzálbez,7,EQUIP: Isabel Giralt i Javier Gonzálbez,H,https://barcelonaencomu.cat/sites/default/files/styles/candidacy_person/public/candidacy/head/photo/xavier_gonzalbez.png?itok=PaeHVB4B,https://barcelonaencomu.cat/ca/candidatura-persona/javier-gonzalbez,
