Question
Number	Title
1	Quines de les següents persones vols que siguin consellera del teu districte?
		
Totals
Total votes	182
Blank votes	30
Null votes	0
Valid votes	152
		
Answers
Id	Text	Category	Total votes	Winner position
0	Joan Manel del Llano Ribas	Sarrià-Sant Gervasi	152	0
