{
    "questions": [
        {
            "answer_total_votes_percentage": "over-total-valid-votes",
            "answers": [
                {
                    "category": "Les Corts",
                    "details": "",
                    "id": 0,
                    "sort_order": 0,
                    "text": "Albert Pérez i Núñez",
                    "total_count": 60,
                    "urls": [
                        {
                            "title": "URL",
                            "url": "https://barcelonaencomu.cat/ca/candidatura-persona/albert-perez-i-nunez"
                        },
                        {
                            "title": "Image URL",
                            "url": "https://barcelonaencomu.cat/sites/default/files/styles/candidacy_person/public/candidacy/head/photo/albert-perez.jpg?itok=Ohld3Ieg"
                        }
                    ],
                    "winner_position": 0
                }
            ],
            "description": "Les Corts",
            "layout": "circles",
            "max": 1,
            "min": 0,
            "num_winners": 1,
            "randomize_answer_order": true,
            "tally_type": "plurality-at-large",
            "title": "Quines de les següents persones vols que siguin consellera del teu districte?",
            "totals": {
                "blank_votes": 13,
                "null_votes": 0,
                "valid_votes": 60
            },
            "winners": []
        }
    ],
    "total_votes": 73
}
