{
    "questions": [
        {
            "answer_total_votes_percentage": "over-total-valid-votes",
            "answers": [
                {
                    "category": "EQUIP: Guanyem Sant Martí en Comú",
                    "details": "",
                    "id": 1,
                    "sort_order": 1,
                    "text": "Carlota Falgueras Marsal",
                    "total_count": 262,
                    "urls": [
                        {
                            "title": "URL",
                            "url": "https://barcelonaencomu.cat/ca/candidatura-persona/carlota-falgueras-marsal"
                        },
                        {
                            "title": "Gender",
                            "url": "https://agoravoting.com/api/gender/M"
                        },
                        {
                            "title": "Image URL",
                            "url": "https://barcelonaencomu.cat/sites/default/files/styles/candidacy_person/public/candidacy/head/photo/carlota_santmarti.png?itok=bcaOmrNX"
                        }
                    ],
                    "winner_position": 0
                },
                {
                    "category": "EQUIP: Guanyem Sant Martí en Comú",
                    "details": "",
                    "id": 0,
                    "sort_order": 0,
                    "text": "Montse Barnils i Santanach",
                    "total_count": 253,
                    "urls": [
                        {
                            "title": "URL",
                            "url": "https://barcelonaencomu.cat/ca/candidatura-persona/montse-barnils-i-santanach"
                        },
                        {
                            "title": "Gender",
                            "url": "https://agoravoting.com/api/gender/M"
                        },
                        {
                            "title": "Image URL",
                            "url": "https://barcelonaencomu.cat/sites/default/files/styles/candidacy_person/public/candidacy/head/photo/montse_santmarti.jpg?itok=6Rg4J3QF"
                        }
                    ],
                    "winner_position": 1
                },
                {
                    "category": "EQUIP: Guanyem Sant Martí en Comú",
                    "details": "",
                    "id": 3,
                    "sort_order": 3,
                    "text": "Jordi Martin Lopez",
                    "total_count": 253,
                    "urls": [
                        {
                            "title": "URL",
                            "url": "https://barcelonaencomu.cat/ca/candidatura-persona/jordi-martin-lopez"
                        },
                        {
                            "title": "Gender",
                            "url": "https://agoravoting.com/api/gender/H"
                        },
                        {
                            "title": "Image URL",
                            "url": "https://barcelonaencomu.cat/sites/default/files/styles/candidacy_person/public/candidacy/head/photo/jordi_santmarti.jpg?itok=u2jjpIIS"
                        }
                    ],
                    "winner_position": 2
                },
                {
                    "category": "EQUIP: Guanyem Sant Martí en Comú",
                    "details": "",
                    "id": 2,
                    "sort_order": 2,
                    "text": "Eva Campos Paladio",
                    "total_count": 243,
                    "urls": [
                        {
                            "title": "URL",
                            "url": "https://barcelonaencomu.cat/ca/candidatura-persona/eva-campos-paladio"
                        },
                        {
                            "title": "Gender",
                            "url": "https://agoravoting.com/api/gender/M"
                        },
                        {
                            "title": "Image URL",
                            "url": "https://barcelonaencomu.cat/sites/default/files/styles/candidacy_person/public/candidacy/head/photo/evacampos.png?itok=SZkCgZkE"
                        }
                    ],
                    "winner_position": 3
                },
                {
                    "category": "EQUIP: Guanyem Sant Martí en Comú",
                    "details": "",
                    "id": 4,
                    "sort_order": 4,
                    "text": "Antonio Herrera Valiente",
                    "total_count": 193,
                    "urls": [
                        {
                            "title": "URL",
                            "url": "https://barcelonaencomu.cat/ca/candidatura-persona/antonio-herrera-valiente"
                        },
                        {
                            "title": "Gender",
                            "url": "https://agoravoting.com/api/gender/H"
                        },
                        {
                            "title": "Image URL",
                            "url": "https://barcelonaencomu.cat/sites/default/files/styles/candidacy_person/public/candidacy/head/photo/antonio.png?itok=KevaGsaa"
                        }
                    ],
                    "winner_position": 4
                },
                {
                    "category": "EQUIP: El Run-Run de la Renovació",
                    "details": "",
                    "id": 9,
                    "sort_order": 9,
                    "text": "Mireia Daniel Pérez",
                    "total_count": 159,
                    "urls": [
                        {
                            "title": "URL",
                            "url": "https://barcelonaencomu.cat/ca/candidatura-persona/mireia-daniel-perez"
                        },
                        {
                            "title": "Gender",
                            "url": "https://agoravoting.com/api/gender/M"
                        },
                        {
                            "title": "Image URL",
                            "url": "https://barcelonaencomu.cat/sites/default/files/styles/candidacy_person/public/candidacy/head/photo/santmarti02.png?itok=6e4Elgmc"
                        }
                    ],
                    "winner_position": null
                },
                {
                    "category": "EQUIP: El Run-Run de la Renovació",
                    "details": "",
                    "id": 8,
                    "sort_order": 8,
                    "text": "Lola Galián Riera",
                    "total_count": 157,
                    "urls": [
                        {
                            "title": "URL",
                            "url": "https://barcelonaencomu.cat/ca/candidatura-persona/lola-galian-riera"
                        },
                        {
                            "title": "Gender",
                            "url": "https://agoravoting.com/api/gender/M"
                        },
                        {
                            "title": "Image URL",
                            "url": "https://barcelonaencomu.cat/sites/default/files/styles/candidacy_person/public/candidacy/head/photo/foto_0.jpg?itok=3qCevyXX"
                        }
                    ],
                    "winner_position": null
                },
                {
                    "category": "EQUIP: El Run-Run de la Renovació",
                    "details": "",
                    "id": 7,
                    "sort_order": 7,
                    "text": "Josefina Salazar Farre",
                    "total_count": 147,
                    "urls": [
                        {
                            "title": "URL",
                            "url": "https://barcelonaencomu.cat/ca/candidatura-persona/josefina-salazar-farre"
                        },
                        {
                            "title": "Gender",
                            "url": "https://agoravoting.com/api/gender/M"
                        },
                        {
                            "title": "Image URL",
                            "url": "https://barcelonaencomu.cat/sites/default/files/styles/candidacy_person/public/candidacy/head/photo/josefina.png?itok=O_oz5UZE"
                        }
                    ],
                    "winner_position": null
                },
                {
                    "category": "EQUIP: El Run-Run de la Renovació",
                    "details": "",
                    "id": 6,
                    "sort_order": 6,
                    "text": "Álvaro Ortega Arteaga",
                    "total_count": 142,
                    "urls": [
                        {
                            "title": "URL",
                            "url": "https://barcelonaencomu.cat/ca/candidatura-persona/alvaro-ortega-arteaga"
                        },
                        {
                            "title": "Gender",
                            "url": "https://agoravoting.com/api/gender/H"
                        },
                        {
                            "title": "Image URL",
                            "url": "https://barcelonaencomu.cat/sites/default/files/styles/candidacy_person/public/candidacy/head/photo/santmarti.png?itok=0MdRDnLf"
                        }
                    ],
                    "winner_position": null
                },
                {
                    "category": "EQUIP: El Run-Run de la Renovació",
                    "details": "",
                    "id": 10,
                    "sort_order": 10,
                    "text": "Toni Campos i Alòs",
                    "total_count": 134,
                    "urls": [
                        {
                            "title": "URL",
                            "url": "https://barcelonaencomu.cat/ca/candidatura-persona/toni-campos-i-alos"
                        },
                        {
                            "title": "Gender",
                            "url": "https://agoravoting.com/api/gender/H"
                        },
                        {
                            "title": "Image URL",
                            "url": "https://barcelonaencomu.cat/sites/default/files/styles/candidacy_person/public/candidacy/head/photo/toni.png?itok=lm8ikwIT"
                        }
                    ],
                    "winner_position": null
                },
                {
                    "category": "Candidatura individual - Josep Vallhonesta Ballesté",
                    "details": "",
                    "id": 12,
                    "sort_order": 12,
                    "text": "Josep Vallhonesta",
                    "total_count": 107,
                    "urls": [
                        {
                            "title": "URL",
                            "url": "https://barcelonaencomu.cat/ca/candidatura-persona/josep-vallhonesta-balleste"
                        },
                        {
                            "title": "Gender",
                            "url": "https://agoravoting.com/api/gender/H"
                        },
                        {
                            "title": "Image URL",
                            "url": "https://barcelonaencomu.cat/sites/default/files/styles/candidacy_person/public/candidacy/head/photo/josep.png?itok=CBboK0PP"
                        }
                    ],
                    "winner_position": null
                }
            ],
            "description": "<a href=\"https://barcelonaencomu.cat/ca/com-funciona-leleccio-de-conselleres-i-consellers\" rel=\"nofollow\">Consulta a la pàgina de primàries de Barcelona en Comú les preguntes freqüents per aquesta votació</a>",
            "extra_options": {
                "accordion_folding_policy": "unfold-all",
                "force_allow_blank_vote": "TRUE",
                "restrict_choices_by_no_tag__max": "5",
                "restrict_choices_by_tag__max": "2",
                "restrict_choices_by_tag__max_error_msg": "No pots seleccionar més de de 2 suplents",
                "restrict_choices_by_tag__name": "suplent"
            },
            "layout": "accordion",
            "max": 5,
            "min": 5,
            "num_winners": 5,
            "randomize_answer_order": false,
            "tally_type": "plurality-at-large",
            "title": "Tria els teus consellers i conselleres de districte de Sant Martí",
            "totals": {
                "blank_votes": 5,
                "null_votes": 0,
                "valid_votes": 410
            },
            "truncate-max-overload": true,
            "winners": []
        },
        {
            "answer_total_votes_percentage": "over-total-valid-votes",
            "answers": [
                {
                    "category": "EQUIP: Guanyem Sant Martí en Comú",
                    "details": "",
                    "id": 5,
                    "sort_order": 5,
                    "text": "Jordi Marzo Fitó",
                    "total_count": 410,
                    "urls": [
                        {
                            "title": "Tag",
                            "url": "https://agoravoting.com/api/tag/suplent"
                        },
                        {
                            "title": "URL",
                            "url": "https://barcelonaencomu.cat/ca/node/1596"
                        },
                        {
                            "title": "Gender",
                            "url": "https://agoravoting.com/api/gender/H"
                        },
                        {
                            "title": "Image URL",
                            "url": "https://barcelonaencomu.cat/sites/default/files/styles/candidacy_person/public/candidacy/head/photo/marzo_santmarti.jpg?itok=bsfyBpnt"
                        }
                    ],
                    "winner_position": 0
                },
                {
                    "category": "EQUIP: El Run-Run de la Renovació",
                    "details": "",
                    "id": 11,
                    "sort_order": 11,
                    "text": "Maria Blanca Arias Gomez",
                    "total_count": 410,
                    "urls": [
                        {
                            "title": "Tag",
                            "url": "https://agoravoting.com/api/tag/suplent"
                        },
                        {
                            "title": "URL",
                            "url": "https://barcelonaencomu.cat/ca/candidatura-persona/suplent-maria-blanca-arias-gomez"
                        },
                        {
                            "title": "Gender",
                            "url": "https://agoravoting.com/api/gender/M"
                        },
                        {
                            "title": "Image URL",
                            "url": "https://barcelonaencomu.cat/sites/default/files/styles/candidacy_person/public/candidacy/head/photo/img_20150703_200844.jpg?itok=70358__f"
                        }
                    ],
                    "winner_position": 1
                }
            ],
            "description": "<a href=\"https://barcelonaencomu.cat/ca/com-funciona-leleccio-de-conselleres-i-consellers\" rel=\"nofollow\">Consulta a la pàgina de primàries de Barcelona en Comú les preguntes freqüents per aquesta votació</a>",
            "extra_options": {
                "accordion_folding_policy": "unfold-all",
                "force_allow_blank_vote": "TRUE",
                "restrict_choices_by_no_tag__max": "5",
                "restrict_choices_by_tag__max": "2",
                "restrict_choices_by_tag__max_error_msg": "No pots seleccionar més de de 2 suplents",
                "restrict_choices_by_tag__name": "suplent"
            },
            "layout": "accordion",
            "max": 2,
            "min": 2,
            "num_winners": 2,
            "randomize_answer_order": false,
            "source_election_index": 0,
            "source_question_index": 0,
            "tally_type": "plurality-at-large",
            "title": "Tria els teus consellers i conselleres de districte de Sant Martí",
            "totals": {
                "blank_votes": 5,
                "null_votes": 0,
                "valid_votes": 410
            },
            "truncate-max-overload": true,
            "winners": []
        }
    ],
    "total_votes": 415
}
