Question
Number	Title
1	Tria els teus consellers i conselleres de districte
		
Totals
Total votes	292
Blank votes	3
Null votes	0
Valid votes	289
		
Answers
Id	Text	Category	Total votes	Winner position
2	Santi Ibarra	EQUIP: En Comú per Ciutat Vella	285	0
0	Eva Alfama	EQUIP: En Comú per Ciutat Vella	282	1
1	Natalia Martínez Rodríguez	EQUIP: En Comú per Ciutat Vella	282	2
4	LLum Ventura	EQUIP: En Comú per Ciutat Vella	279	3
3	Albert Sancho	EQUIP: En Comú per Ciutat Vella	203	4
7	Miguel Àngel Pérez Ramírez	Candidatura Individual - Miguel Àngel Pérez Ramírez	114	None
Question
Number	Title
2	Tria els teus consellers i conselleres de districte
		
Totals
Total votes	292
Blank votes	3
Null votes	0
Valid votes	289
		
Answers
Id	Text	Category	Total votes	Winner position
5	Ferran Caymel	EQUIP: En Comú per Ciutat Vella	289	0
6	Vicente Hernández	EQUIP: En Comú per Ciutat Vella	289	1
