[
  [
    "agora_results.pipes.duplicate_questions.duplicate_questions",
    {
      "help": "Duplicamos para contar consellers y suplents por separado",
      "duplications": [
        {
          "source_election_index": 0,
          "base_question_index": 0,
          "duplicated_question_indexes": [1]
        }
      ]
    }
  ],
  [
    "agora_results.pipes.modifications.apply_modifications",
    {
      "modifications": [
        {
          "question_index": 0,
          "action": "withdraw-candidates",
          "policy": "match-url",
          "regex": ".*suplent$",
          "title": "Tag"
        },
        {
          "question_index": 0,
          "action": "remove-candidates",
          "policy": "match-url",
          "regex": ".*suplent$",
          "title": "Tag"
        },
        {
          "question_index": 0,
          "action": "set-min",
          "min": 3
        },
        {
          "question_index": 0,
          "action": "set-max",
          "max": 3
        },
        {
          "question_index": 0,
          "action": "modify-number-of-winners",
          "policy": "truncate-max-overload",
          "num_winners": 3
        },

        {
          "question_index": 1,
          "action": "remove-candidates",
          "policy": "not-match-url",
          "regex": ".*suplent$",
          "title": "Tag"
        },
        {
          "question_index": 1,
          "action": "withdraw-candidates",
          "policy": "not-match-url",
          "regex": ".*suplent$",
          "title": "Tag"
        },
        {
          "question_index": 1,
          "action": "set-min",
          "min": 2
        },
        {
          "question_index": 1,
          "action": "set-max",
          "max": 2
        },
        {
          "question_index": 1,
          "action": "modify-number-of-winners",
          "policy": "truncate-max-overload",
          "num_winners": 2
        }
      ]
    }
  ],
  [
    "agora_results.pipes.results.do_tallies",
    {
      "ignore_invalid_votes":true,
      "question_indexes": [0,1]
    }
  ],
  [
    "agora_results.pipes.results.apply_removals",
    {
      "help": "apply previously recorded removals"
    }
  ],
  [
    "agora_results.pipes.bcnencomu.team_count_weight_correction",
    {
      "original_count_weight": 1,
      "team_count_weight": 0,
      "question_indexes": [0, 1]
    }
  ],
  [
    "agora_results.pipes.sort.sort_non_iterative",
    {
      "question_indexes":[0,1]
    }
  ],
  [
    "agora_results.pipes.parity.proportion_rounded",
    {
      "women_names": null,
      "proportions": [50, 50],
      "add_missing_from_unbalanced_sex": true,
      "question_indexes": [0],
      "phantom_precalc_list": ["H"]
    }
  ],
  [
    "agora_results.pipes.parity.proportion_rounded",
    {
      "women_names": null,
      "proportions": [50, 50],
      "add_missing_from_unbalanced_sex": true,
      "question_indexes": [1]
    }
  ]
]