Question
Number	Title
1	Tria els teus consellers i conselleres de districte de Sant Andreu
		
Totals
Total votes	178
Blank votes	6
Null votes	0
Valid votes	172
		
Answers
Id	Text	Category	Total votes	Winner position
0	Blanca Port Gimeno	EQUIP: Blanca Port, Elvira Juncosa, Jordi Gimeno, JMaria Fanlo i Josep Alberjon	309.6	2
1	Elvira Juncosa i Román	EQUIP: Blanca Port, Elvira Juncosa, Jordi Gimeno, JMaria Fanlo i Josep Alberjon	309.6	3
2	Jordi Gimeno Pérez	EQUIP: Blanca Port, Elvira Juncosa, Jordi Gimeno, JMaria Fanlo i Josep Alberjon	309.6	0
3	José María Fanlo Ruiz	EQUIP: Blanca Port, Elvira Juncosa, Jordi Gimeno, JMaria Fanlo i Josep Alberjon	309.6	1
4	Josep Alberjón Fumanal	EQUIP: Blanca Port, Elvira Juncosa, Jordi Gimeno, JMaria Fanlo i Josep Alberjon	309.6	None
